Department,HASC,ISO,FIPS,NUTE,DANE,Dane #,Iso-country,Type,Population,Area(km.²),Area(mi.²),Capital
Amazonas,CO.AM,AMA,CO01,20491,91,91,co-91,department,"46,95","109,665","42,342",Leticia
Antioquia,CO.AN,ANT,CO02,20505,05,05,co-5,department,"5,601,507","63,612","24,561",Medellín
Arauca,CO.AR,ARA,CO03,20781,81,81,co-81,department,"153,028","23,818","9,196",Arauca
Atlántico,CO.AT,ATL,CO04,20208,08,08,co-8,department,"2,112,001","3,388","1,308",Barranquilla
Bolívar,CO.BL,BOL,CO35,20213,13,13,co-13,department,"1,836,640","25,978","10,03",Cartagena
Boyacá,CO.BY,BOY,CO36,20615,15,15,co-15,department,"1,210,982","23,189","8,953",Tunja
Caldas,CO.CL,CAL,CO37,20617,17,17,co-17,department,"898,49","7,888","3,046",Manizales
Caquetá,CO.CQ,CAQ,CO08,20418,18,18,co-18,department,"337,932","88,965","34,35",Florencia
Casanare,CO.CS,CAS,CO32,20785,85,85,co-85,department,"281,294","44,64","17,236",Yopal
Cauca,CO.CA,CAU,CO09,20319,19,19,co-19,department,"1,182,022","29,308","11,316",Popayán
Cesar,CO.CE,CES,CO10,20220,20,20,co-20,department,"878,437","22,905","8,844",Valledupar
Chocó,CO.CH,CHO,CO11,20327,27,27,co-27,department,"388,476","46,53","17,965",Quibdó
Córdoba,CO.CO,COR,CO12,20223,23,23,co-23,department,"1,462,909","25,02","9,66",Montería
Cundinamarca,CO.CU,CUN,CO33,20625,25,25,co-25,department,"2,228,682","22,478","8,679",Bogotá
Bogotá,CO.DC,DC,CO34,20111,11,11,co-11,capital district,"6,778,691","1,732",669,Bogotá
Guainía,CO.GN,GUA,CO15,20494,94,94,co-94,department,"18,797","72,238","27,891",Puerto Inírida
Guaviare,CO.GV,GUV,CO14,20495,95,95,co-95,department,"56,758","42,327","16,343",San José del Guaviare
Huila,CO.HU,HUI,CO16,20641,41,41,co-41,department,"1,001,476","19,89","7,68",Neiva
La Guajira,CO.LG,LAG,CO17,20244,44,44,co-44,department,"655,943","20,848","8,049",Riohacha
Magdalena,CO.MA,MAG,CO38,20247,47,47,co-47,department,"1,136,819","23,188","8,953",Santa Marta
Meta,CO.ME,MET,CO19,20750,50,50,co-50,department,"713,772","85,635","33,064",Villavicencio
Nariño,CO.NA,NAR,CO20,20352,52,52,co-52,department,"1,498,234","33,268","12,845",Pasto
Norte de Santander,CO.NS,NSA,CO21,20554,54,54,co-54,department,"1,208,336","21,658","8,362",Cúcuta
Putumayo,CO.PU,PUT,CO22,20486,86,86,co-86,department,"237,197","24,885","9,608",Mocoa
Quindío,CO.QD,QUI,CO23,20663,63,63,co-63,department,"518,691","1,845",712,Armenia
Risaralda,CO.RI,RIS,CO24,20666,66,66,co-66,department,"859,666","4,14","1,598",Pereira
San Andrés y Providencia,CO.SA,SAP,CO25,20288,88,88,co-88,department,"59,573",44,17,San Andrés
Santander,CO.ST,SAN,CO26,20568,68,68,co-68,department,"1,913,444","30,537","11,79",Bucaramanga
Sucre,CO.SU,SUC,CO27,20270,70,70,co-70,department,"762,263","10,917","4,215",Sincelejo
Tolima,CO.TO,TOL,CO28,20673,73,73,co-73,department,"1,312,304","23,562","9,097",Ibagué
Valle del Cauca,CO.VC,VAC,CO29,20376,76,76,co-76,department,"4,052,535","22,14","8,548",Cali
Vaupés,CO.VP,VAU,CO30,20497,97,97,co-97,department,"19,943","65,268","25,2",Mitú
Vichada,CO.VD,VID,CO31,20799,99,99,co-99,department,"44,592","100,242","38,704",Puerto Carreño
